%YAML 1.1
%TAG !u! tag:unity3d.com,2011:
--- !u!114 &11400000
MonoBehaviour:
  m_ObjectHideFlags: 0
  m_CorrespondingSourceObject: {fileID: 0}
  m_PrefabInstance: {fileID: 0}
  m_PrefabAsset: {fileID: 0}
  m_GameObject: {fileID: 0}
  m_Enabled: 1
  m_EditorHideFlags: 0
  m_Script: {fileID: 11500000, guid: 61937b51925244748bcd32549ca3c24c, type: 3}
  m_Name: 43
  m_EditorClassIdentifier: 
  coinsCount: 10
  awakenDistance: 6
  lostDistance: 9
  coinsDistance: 8
  exitPoint: {x: 0, y: 0, z: 0}
  playerDefaultPos: {x: 10, y: 10}
  enemyCount: 2
  enemyDefaultPos:
  - {x: 1, y: 1}
  - {x: 19, y: 1}
  - {x: 19, y: 19}
  - {x: 1, y: 19}
